…
You can install the development version of `dqtools` like so:

``` r
# install.packages("remotes")
remotes::install_github("jjchern/dqtools")
```

## Example

``` r
library(dplyr)

dqtools::dq_ip_file
#> # A tibble: 1,113 × 5
#>    State   `Data Year` Variable      Topic               `DQ Assessment`
#>    <chr>         <dbl> <chr>         <chr>               <chr>          
#>  1 Alabama        2020 ADMTG_DGNS_CD Diagnosis Code - IP Low concern    
#>  2 Alabama        2020 DGNS_CD_1     Diagnosis Code - IP Low concern    
#>  3 Alabama        2020 DGNS_CD_2     Diagnosis Code - IP Low concern    
#>  4 Alabama        2020 DGNS_CD_3     Diagnosis Code - IP Low concern    
#>  5 Alabama        2020 DGNS_CD_4     Diagnosis Code - IP Low concern    
#>  6 Alabama        2020 DGNS_CD_5     Diagnosis Code - IP Low concern    
#>  7 Alabama        2020 DGNS_CD_6     Diagnosis Code - IP Low concern    
#>  8 Alabama        2020 DGNS_CD_7     Diagnosis Code - IP Low concern    
#>  9 Alabama        2020 DGNS_CD_8     Diagnosis Code - IP Low concern    
#> 10 Alabama        2020 DGNS_CD_9     Diagnosis Code - IP Low concern    
#> # … with 1,103 more rows

dqtools::dq_ip_file |> count(Variable)
#> # A tibble: 21 × 2
#>    Variable          n
#>    <chr>         <int>
#>  1 ADMSN_DT         53
#>  2 ADMTG_DGNS_CD    53
#>  3 DGNS_CD_1        53
#>  4 DGNS_CD_10       53
#>  5 DGNS_CD_11       53
#>  6 DGNS_CD_12       53
#>  7 DGNS_CD_2        53
#>  8 DGNS_CD_3        53
#>  9 DGNS_CD_4        53
#> 10 DGNS_CD_5        53
#> # … with 11 more rows
…
